(kicad_symbol_lib (version 20220914) (generator kicad_symbol_editor)
  (symbol "LM22673QMRE-5.0_NOPB" (in_bom yes) (on_board yes)
    (property "Reference" "IC" (at 26.67 7.62 0)
      (effects (font (size 1.27 1.27)) (justify left top))
    )
    (property "Value" "LM22673QMRE-5.0_NOPB" (at 26.67 5.08 0)
      (effects (font (size 1.27 1.27)) (justify left top))
    )
    (property "Footprint" "Package_SO:TI_SO-PowerPAD-8_ThermalVias" (at 26.67 -94.92 0)
      (effects (font (size 1.27 1.27)) (justify left top) hide)
    )
    (property "Datasheet" "http://www.ti.com/lit/gpn/lm22673-q1" (at 26.67 -194.92 0)
      (effects (font (size 1.27 1.27)) (justify left top) hide)
    )
    (property "Height" "1.7" (at 26.67 -394.92 0)
      (effects (font (size 1.27 1.27)) (justify left top) hide)
    )
    (property "Mouser Part Number" "" (at 26.67 -494.92 0)
      (effects (font (size 1.27 1.27)) (justify left top) hide)
    )
    (property "Mouser Price/Stock" "" (at 26.67 -594.92 0)
      (effects (font (size 1.27 1.27)) (justify left top) hide)
    )
    (property "Manufacturer_Name" "Texas Instruments" (at 26.67 -694.92 0)
      (effects (font (size 1.27 1.27)) (justify left top) hide)
    )
    (property "Manufacturer_Part_Number" "LM22673QMRE-5.0/NOPB" (at 26.67 -794.92 0)
      (effects (font (size 1.27 1.27)) (justify left top) hide)
    )
    (property "ki_description" "3A SIMPLE SWITCHER&#174;, Step-Down Voltage Reg. with Adjustable Soft-Start and Current Limit" (at 0 0 0)
      (effects (font (size 1.27 1.27)) hide)
    )
    (symbol "LM22673QMRE-5.0_NOPB_1_1"
      (rectangle (start 5.08 2.54) (end 25.4 -20.32)
        (stroke (width 0.254) (type default))
        (fill (type background))
      )
      (pin passive line (at 0 0 0) (length 5.08)
        (name "BOOT" (effects (font (size 1.27 1.27))))
        (number "1" (effects (font (size 1.27 1.27))))
      )
      (pin no_connect line (at 0 -2.54 0) (length 5.08)
        (name "NC" (effects (font (size 1.27 1.27))))
        (number "2" (effects (font (size 1.27 1.27))))
      )
      (pin passive line (at 0 -5.08 0) (length 5.08)
        (name "IADJ" (effects (font (size 1.27 1.27))))
        (number "3" (effects (font (size 1.27 1.27))))
      )
      (pin passive line (at 0 -7.62 0) (length 5.08)
        (name "FB" (effects (font (size 1.27 1.27))))
        (number "4" (effects (font (size 1.27 1.27))))
      )
      (pin passive line (at 30.48 -7.62 180) (length 5.08)
        (name "SS" (effects (font (size 1.27 1.27))))
        (number "5" (effects (font (size 1.27 1.27))))
      )
      (pin passive line (at 30.48 -5.08 180) (length 5.08)
        (name "GND_1" (effects (font (size 1.27 1.27))))
        (number "6" (effects (font (size 1.27 1.27))))
      )
      (pin passive line (at 30.48 -2.54 180) (length 5.08)
        (name "VIN" (effects (font (size 1.27 1.27))))
        (number "7" (effects (font (size 1.27 1.27))))
      )
      (pin passive line (at 30.48 0 180) (length 5.08)
        (name "SW" (effects (font (size 1.27 1.27))))
        (number "8" (effects (font (size 1.27 1.27))))
      )
      (pin passive line (at 15.24 -25.4 90) (length 5.08)
        (name "GND_2" (effects (font (size 1.27 1.27))))
        (number "9" (effects (font (size 1.27 1.27))))
      )
    )
  )
)
